-------------------------------------------------------------------------------
Test set: com.qaagility.HelloWebAppTest
-------------------------------------------------------------------------------
Tests run: 3, Failures: 0, Errors: 0, Skipped: 0, Time elapsed: 0.241 sec - in com.qaagility.HelloWebAppTest
